%
(1001)
(T1  D=3.175 CR=0 - ZMIN=0.5 - flat end mill)
G90 G94
G17
G21
G28 G91 Z0
G90

(Trace1)
M9
T1 M6
S12000 M3
G54
M8

G1 X0 Y0 F1400
Z16
Z5.5
G1 Z0.5
X100
Y100
X3.536
Y30
X7.071 Y26.465
X0 Y19.393
X7.071 Y12.322
X0 Y5.251
X95
Y95
X8.536
Y90
X90
Y10.251
X13.535
Y50.251
X14.243 Y50.958
X12.828 Y52.373
X14.243 Y53.787
X12.828 Y55.201
X14.243 Y56.615
X12.828 Y58.029
X14.243 Y59.444
X12.828 Y60.858
X14.243 Y62.272
X12.828 Y63.686
X14.243 Y65.101
X12.828 Y66.515
X14.243 Y67.929
X12.828 Y69.343
X13.889 Y70.404
X13.182 Y71.111
X13.889 Y71.818
X13.182 Y72.525
X13.889 Y73.232
X13.182 Y73.939
X13.889 Y74.646
X13.182 Y75.354
X13.889 Y76.061
X13.182 Y76.768
X13.889 Y77.475
X13.182 Y78.182
X13.889 Y78.889
Y85
X80
Y84.5
X23.889
Y20.251
Z5.5
G0 Z16
M9
G28 G91 Z0
G90
G28 G91 X0 Y0
G90
M30
%
